%YAML 1.1
%TAG !u! tag:unity3d.com,2011:
--- !u!114 &11400000
MonoBehaviour:
  m_ObjectHideFlags: 0
  m_PrefabParentObject: {fileID: 0}
  m_PrefabInternal: {fileID: 0}
  m_GameObject: {fileID: 0}
  m_Enabled: 1
  m_EditorHideFlags: 0
  m_Script: {fileID: 11500000, guid: 76f96670ca5227b4d97cd6cd47515fc6, type: 3}
  m_Name: AndroidConfig
  m_EditorClassIdentifier: 
  BundleVersion: 17
  Configs:
  - KeyName: LevelUpType
    IsActive: 1
    IsOnlyNewInstall: 1
    IsOverride: 0
    ListEventsAB:
    - AB_LevelUpType_Score
    - AB_LevelUpType_DropCard
    ListRandomRatio: 
    DefaultValue: 0
